{"photos":{"page":1,"pages":5,"perpage":100,"total":500,"photo":[{"id":"32264529073","owner":"132828374@N08","secret":"33c35c5a1c","server":"2469","farm":3,"title":"Yellow-crowned Bishop","ispublic":1,"isfriend":0,"isfamily":0},{"id":"33086694415","owner":"92361032@N05","secret":"0c6cf89150","server":"581","farm":1,"title":"\" Multicolor \"","ispublic":1,"isfriend":0,"isfamily":0},{"id":"33097423895","owner":"48945861@N06","secret":"aff5f0c0bd","server":"2709","farm":3,"title":"In the Gardens","ispublic":1,"isfriend":0,"isfamily":0},{"id":"33082098635","owner":"111919763@N07","secret":"89f08d44f9","server":"3763","farm":4,"title":"La Reine des iles Lofoten","ispublic":1,"isfriend":0,"isfamily":0},{"id":"32270287313","owner":"45000553@N05","secret":"5c6d16dc2c","server":"2819","farm":3,"title":"Red-backed Fairy-wren (Malurus melanocephalus)","ispublic":1,"isfriend":0,"isfamily":0},{"id":"32250580584","owner":"64012448@N03","secret":"23e4cb54d8","server":"2939","farm":3,"title":"A summer like sunset","ispublic":1,"isfriend":0,"isfamily":0},{"id":"32712401360","owner":"11241265@N04","secret":"53a95c95f4","server":"2679","farm":3,"title":"Snack Time","ispublic":1,"isfriend":0,"isfamily":0},{"id":"32237219304","owner":"77798688@N03","secret":"199caeba04","server":"2910","farm":3,"title":"Great Gray Owl \/ Chouette Lapone \/ Strix nebulosa","ispublic":1,"isfriend":0,"isfamily":0},{"id":"32965285001","owner":"112711738@N06","secret":"c24677ed7a","server":"3707","farm":4,"title":"Blue Hour At The C.A.S.","ispublic":1,"isfriend":0,"isfamily":0},{"id":"33088066645","owner":"87044997@N08","secret":"c2422b3d4a","server":"2748","farm":3,"title":"D ##","ispublic":1,"isfriend":0,"isfamily":0},{"id":"33051115926","owner":"40629145@N02","secret":"1c87a143e2","server":"2477","farm":3,"title":"Troon","ispublic":1,"isfriend":0,"isfamily":0},{"id":"32961196501","owner":"76285708@N06","secret":"e0aa0965e9","server":"2338","farm":3,"title":"Rainbow Stoer","ispublic":1,"isfriend":0,"isfamily":0},{"id":"32708102270","owner":"48996974@N08","secret":"61b39fa5c0","server":"2690","farm":3,"title":"*Life is but a dream*","ispublic":1,"isfriend":0,"isfamily":0},{"id":"32702444040","owner":"134765763@N05","secret":"07fce9d874","server":"2700","farm":3,"title":"Entre ciel et terre","ispublic":1,"isfriend":0,"isfamily":0},{"id":"32936478192","owner":"39737306@N04","secret":"0330c74a2e","server":"3670","farm":4,"title":"Little Langdale Tarn","ispublic":1,"isfriend":0,"isfamily":0},{"id":"32959177921","owner":"62034343@N07","secret":"48e586fda2","server":"3788","farm":4,"title":"Kirkjufell","ispublic":1,"isfriend":0,"isfamily":0},{"id":"32936621612","owner":"7432018@N02","secret":"0cb22b0b46","server":"2677","farm":3,"title":"Drogenbos, Vlaams-Brabant","ispublic":1,"isfriend":0,"isfamily":0},{"id":"33048618196","owner":"94223740@N03","secret":"48e2ef6ae6","server":"571","farm":1,"title":"Ceratitis","ispublic":1,"isfriend":0,"isfamily":0},{"id":"32927707942","owner":"72287961@N07","secret":"d7e9f81dae","server":"2470","farm":3,"title":"Cuckoo","ispublic":1,"isfriend":0,"isfamily":0},{"id":"32933873972","owner":"143315505@N08","secret":"d1fe6c5c5c","server":"2848","farm":3,"title":"Spring...","ispublic":1,"isfriend":0,"isfamily":0},{"id":"33094005445","owner":"64104971@N02","secret":"f6277e54d3","server":"684","farm":1,"title":"arctic night","ispublic":1,"isfriend":0,"isfamily":0},{"id":"32929640772","owner":"91185075@N04","secret":"7fb7eaf40d","server":"2132","farm":3,"title":"como una solana al oriente","ispublic":1,"isfriend":0,"isfamily":0},{"id":"32277374753","owner":"86860338@N02","secret":"c9f39efe4d","server":"2894","farm":3,"title":"Morning","ispublic":1,"isfriend":0,"isfamily":0},{"id":"32966100191","owner":"35280811@N08","secret":"e526173b84","server":"781","farm":1,"title":"Mr and Mrs Great Blue Heron","ispublic":1,"isfriend":0,"isfamily":0},{"id":"32267921943","owner":"22279581@N05","secret":"4057b358e2","server":"2704","farm":3,"title":"Santuario della Montagna Spaccata","ispublic":1,"isfriend":0,"isfamily":0},{"id":"32245129924","owner":"73422502@N08","secret":"42e4597570","server":"2508","farm":3,"title":"Paris","ispublic":1,"isfriend":0,"isfamily":0},{"id":"33085977145","owner":"39020846@N02","secret":"99d8b2d4c2","server":"2665","farm":3,"title":"anochecer en la almudena in explore 16\/02\/25","ispublic":1,"isfriend":0,"isfamily":0},{"id":"32697695800","owner":"66956608@N06","secret":"1f4eae2371","server":"3830","farm":4,"title":"Flickr Friday - Early Spring Signs","ispublic":1,"isfriend":0,"isfamily":0},{"id":"32271910703","owner":"79866136@N05","secret":"a2d2c253fe","server":"2544","farm":3,"title":"vintage rose","ispublic":1,"isfriend":0,"isfamily":0},{"id":"32962780371","owner":"92851606@N02","secret":"089f397092","server":"2635","farm":3,"title":"Spring!!","ispublic":1,"isfriend":0,"isfamily":0},{"id":"33050871766","owner":"64534310@N07","secret":"2d07d32a96","server":"2672","farm":3,"title":"DSC4682  Stonechat..","ispublic":1,"isfriend":0,"isfamily":0},{"id":"32711736580","owner":"20969050@N05","secret":"15b57c727e","server":"339","farm":1,"title":"Horsford Woods 24\/01\/2017","ispublic":1,"isfriend":0,"isfamily":0},{"id":"32268434423","owner":"42463786@N06","secret":"02f5f1c3bf","server":"2256","farm":3,"title":"The White Sea of Hope","ispublic":1,"isfriend":0,"isfamily":0},{"id":"33094981505","owner":"50264123@N00","secret":"fd06921e54","server":"3800","farm":4,"title":"Sedona In Crimson","ispublic":1,"isfriend":0,"isfamily":0},{"id":"32268746523","owner":"59471898@N04","secret":"87d85856cc","server":"685","farm":1,"title":"Short Eared owl","ispublic":1,"isfriend":0,"isfamily":0},{"id":"33083208905","owner":"37551326@N00","secret":"15445f7704","server":"2384","farm":3,"title":"...","ispublic":1,"isfriend":0,"isfamily":0},{"id":"32269266493","owner":"137396683@N02","secret":"5b1bccee74","server":"683","farm":1,"title":"2","ispublic":1,"isfriend":0,"isfamily":0},{"id":"33041093986","owner":"46752442@N05","secret":"4108077032","server":"2696","farm":3,"title":"Great Grey Owl","ispublic":1,"isfriend":0,"isfamily":0},{"id":"32704692120","owner":"105005357@N06","secret":"d78a819173","server":"3675","farm":4,"title":"Traveler","ispublic":1,"isfriend":0,"isfamily":0},{"id":"32960966291","owner":"149302406@N07","secret":"4d8f86114c","server":"3729","farm":4,"title":"Spider-Man from Spider-Man: Homecoming","ispublic":1,"isfriend":0,"isfamily":0},{"id":"32967164001","owner":"48029767@N08","secret":"e2ac152f6b","server":"2677","farm":3,"title":"Burbank | 2017","ispublic":1,"isfriend":0,"isfamily":0},{"id":"32711860010","owner":"21498003@N02","secret":"736a1ea4a2","server":"3895","farm":4,"title":"Le fou du volant .. Mad driver !","ispublic":1,"isfriend":0,"isfamily":0},{"id":"32936616012","owner":"86505708@N06","secret":"7c9c6cc9c8","server":"745","farm":1,"title":"Sunset Schildmeer","ispublic":1,"isfriend":0,"isfamily":0},{"id":"32704544510","owner":"48931202@N02","secret":"48d8e69302","server":"3682","farm":4,"title":"La via per il Paradiso","ispublic":1,"isfriend":0,"isfamily":0},{"id":"32238171154","owner":"33198406@N07","secret":"c94ffaa5d1","server":"673","farm":1,"title":"Moments","ispublic":1,"isfriend":0,"isfamily":0},{"id":"32937153182","owner":"34039290@N06","secret":"7d64041699","server":"2518","farm":3,"title":"roots","ispublic":1,"isfriend":0,"isfamily":0},{"id":"32703149540","owner":"55740718@N03","secret":"2f9a095f30","server":"2796","farm":3,"title":"Emsworth Gold","ispublic":1,"isfriend":0,"isfamily":0},{"id":"32700355910","owner":"38058941@N00","secret":"bb13e605e2","server":"2552","farm":3,"title":"W is for wine...","ispublic":1,"isfriend":0,"isfamily":0},{"id":"32280101093","owner":"96895609@N02","secret":"0c27aa6f18","server":"3705","farm":4,"title":"Une derni\u00e8re pour la route.","ispublic":1,"isfriend":0,"isfamily":0},{"id":"32961241881","owner":"116607643@N05","secret":"d3c4ea6b4d","server":"2124","farm":3,"title":"winter into spring","ispublic":1,"isfriend":0,"isfamily":0},{"id":"32272595013","owner":"99339071@N07","secret":"2fc8ee1859","server":"3721","farm":4,"title":"Dettifoss","ispublic":1,"isfriend":0,"isfamily":0},{"id":"33088732505","owner":"75465649@N04","secret":"088c5cac60","server":"2618","farm":3,"title":"_AAA154","ispublic":1,"isfriend":0,"isfamily":0},{"id":"33054146186","owner":"51954575@N00","secret":"6bb02941c5","server":"2880","farm":3,"title":"2017_55","ispublic":1,"isfriend":0,"isfamily":0},{"id":"32250861014","owner":"41254373@N05","secret":"a0661fe101","server":"2674","farm":3,"title":"So m\u00fcde (Explore 25.2.2017)","ispublic":1,"isfriend":0,"isfamily":0},{"id":"33049530886","owner":"12288280@N05","secret":"61f137f60c","server":"771","farm":1,"title":"Manchester","ispublic":1,"isfriend":0,"isfamily":0},{"id":"32933624642","owner":"31843317@N04","secret":"973b4dd791","server":"669","farm":1,"title":"Maniobra de aterrizaje.","ispublic":1,"isfriend":0,"isfamily":0},{"id":"32699029130","owner":"10113436@N02","secret":"3d49aba484","server":"3772","farm":4,"title":"Peregrine and the dove","ispublic":1,"isfriend":0,"isfamily":0},{"id":"32953220141","owner":"34148187@N04","secret":"fc93d96bf8","server":"3767","farm":4,"title":"American Kestrel","ispublic":1,"isfriend":0,"isfamily":0},{"id":"32269047513","owner":"7687009@N02","secret":"2b4ccca420","server":"3715","farm":4,"title":"Lava Firehose","ispublic":1,"isfriend":0,"isfamily":0},{"id":"32245172664","owner":"134315792@N02","secret":"3665a186bf","server":"2899","farm":3,"title":"Martre d\u2019Am\u00e9rique \/  American Marten","ispublic":1,"isfriend":0,"isfamily":0},{"id":"32279825653","owner":"129717605@N08","secret":"3e6ccdb12f","server":"3912","farm":4,"title":"I'll wait for you here","ispublic":1,"isfriend":0,"isfamily":0},{"id":"33086726955","owner":"60361579@N08","secret":"0aa5479e97","server":"635","farm":1,"title":"Pont de Llierca . Siglo XII    (Explore)","ispublic":1,"isfriend":0,"isfamily":0},{"id":"32702385560","owner":"133368617@N02","secret":"61b167b2f2","server":"3817","farm":4,"title":"Shadows","ispublic":1,"isfriend":0,"isfamily":0},{"id":"33083285675","owner":"51434089@N04","secret":"41e8399cef","server":"2387","farm":3,"title":"Honeycomb Sunset","ispublic":1,"isfriend":0,"isfamily":0},{"id":"33049520286","owner":"86541858@N02","secret":"165b62b1f0","server":"2860","farm":3,"title":"[Mid-River Clan] GoH: Village Homestead","ispublic":1,"isfriend":0,"isfamily":0},{"id":"32280373933","owner":"75713554@N00","secret":"348689fcb0","server":"2948","farm":3,"title":"CHILLIDA pending","ispublic":1,"isfriend":0,"isfamily":0},{"id":"32236300414","owner":"43886382@N03","secret":"f05f6baf19","server":"715","farm":1,"title":"Hanoi 2.2017","ispublic":1,"isfriend":0,"isfamily":0},{"id":"33091797355","owner":"135458733@N03","secret":"f9b3c89fa6","server":"572","farm":1,"title":"Away","ispublic":1,"isfriend":0,"isfamily":0},{"id":"33054322946","owner":"79855893@N00","secret":"89be1cb926","server":"598","farm":1,"title":"Garfield","ispublic":1,"isfriend":0,"isfamily":0},{"id":"32924470642","owner":"48008491@N05","secret":"2a31b0dea7","server":"2681","farm":3,"title":"Colorado Mountain Sun","ispublic":1,"isfriend":0,"isfamily":0},{"id":"32247627214","owner":"25235699@N02","secret":"a246be5810","server":"2487","farm":3,"title":"A Shower of Arrows [Explored]","ispublic":1,"isfriend":0,"isfamily":0},{"id":"32280545493","owner":"129894947@N04","secret":"ae725e7eeb","server":"2607","farm":3,"title":"Buenos Aires streets","ispublic":1,"isfriend":0,"isfamily":0},{"id":"33051266536","owner":"131012412@N07","secret":"ef4817b3f5","server":"617","farm":1,"title":"X marks the spot (Explore 25\/02\/17 #53)","ispublic":1,"isfriend":0,"isfamily":0},{"id":"32246552404","owner":"149780327@N06","secret":"c3c40d4315","server":"2378","farm":3,"title":"Rivi\u00e8re tranquille","ispublic":1,"isfriend":0,"isfamily":0},{"id":"33094194065","owner":"93741354@N02","secret":"9ce42e4fea","server":"662","farm":1,"title":"Creepy forest","ispublic":1,"isfriend":0,"isfamily":0},{"id":"33043553626","owner":"46239514@N03","secret":"5e1245d588","server":"2867","farm":3,"title":"","ispublic":1,"isfriend":0,"isfamily":0},{"id":"32711219410","owner":"43385244@N07","secret":"33ed202de6","server":"2832","farm":3,"title":"pit stop","ispublic":1,"isfriend":0,"isfamily":0},{"id":"32281062473","owner":"131152334@N03","secret":"0dc54d1b35","server":"2599","farm":3,"title":"Ocreatus underwoodii - Booted racket-tail - Colibr\u00ed de raquetas","ispublic":1,"isfriend":0,"isfamily":0},{"id":"32964735431","owner":"59314046@N07","secret":"3278668aeb","server":"2321","farm":3,"title":"Freitagsblume im Werden - Thanks for the Explore # 57","ispublic":1,"isfriend":0,"isfamily":0},{"id":"32265652323","owner":"79586580@N03","secret":"0ee29e390f","server":"2817","farm":3,"title":"On different paths","ispublic":1,"isfriend":0,"isfamily":0},{"id":"32959305671","owner":"32537801@N06","secret":"05a3875e46","server":"2540","farm":3,"title":"malleable","ispublic":1,"isfriend":0,"isfamily":0},{"id":"33054337536","owner":"130515465@N04","secret":"dc1938a08c","server":"759","farm":1,"title":"Snow Gums in Mist, New England N.P.","ispublic":1,"isfriend":0,"isfamily":0},{"id":"32280900613","owner":"49793676@N06","secret":"bf9223c587","server":"3848","farm":4,"title":"\u30de\u30f3\u30b5\u30af Hamamelis japonica","ispublic":1,"isfriend":0,"isfamily":0},{"id":"33089021245","owner":"46573247@N05","secret":"8c6260ce56","server":"2545","farm":3,"title":"Mink","ispublic":1,"isfriend":0,"isfamily":0},{"id":"32967575281","owner":"77278093@N03","secret":"2cf1155da9","server":"3739","farm":4,"title":"The beginning","ispublic":1,"isfriend":0,"isfamily":0},{"id":"32266688013","owner":"34510476@N03","secret":"69830e8f16","server":"652","farm":1,"title":"","ispublic":1,"isfriend":0,"isfamily":0},{"id":"32705791220","owner":"74561856@N04","secret":"f8051d86b2","server":"724","farm":1,"title":"Siemens Turb","ispublic":1,"isfriend":0,"isfamily":0},{"id":"32713441250","owner":"47105139@N02","secret":"7f16a3a119","server":"771","farm":1,"title":"I AM","ispublic":1,"isfriend":0,"isfamily":0},{"id":"32246691184","owner":"98696472@N04","secret":"038ce043e9","server":"3844","farm":4,"title":".","ispublic":1,"isfriend":0,"isfamily":0},{"id":"32243547034","owner":"23614976@N06","secret":"03a0cde28a","server":"2646","farm":3,"title":"The Prize...","ispublic":1,"isfriend":0,"isfamily":0},{"id":"32239717094","owner":"75948747@N03","secret":"1ff36dc2b2","server":"3840","farm":4,"title":"","ispublic":1,"isfriend":0,"isfamily":0},{"id":"33050494196","owner":"43653701@N06","secret":"09482f6e63","server":"2941","farm":3,"title":"La Niv\u00e9ole de printemps - Leucojum vernum","ispublic":1,"isfriend":0,"isfamily":0},{"id":"32965438951","owner":"92369616@N07","secret":"272a43fc9a","server":"744","farm":1,"title":"Downtown Cobblestones","ispublic":1,"isfriend":0,"isfamily":0},{"id":"33049616586","owner":"66129613@N02","secret":"589890ae79","server":"3703","farm":4,"title":"[DC] The First Spectrum","ispublic":1,"isfriend":0,"isfamily":0},{"id":"32268100243","owner":"132311475@N06","secret":"89f48fbf24","server":"2859","farm":3,"title":"Petite Charbonni\u00e8re","ispublic":1,"isfriend":0,"isfamily":0},{"id":"32705558670","owner":"131960316@N02","secret":"2b0ea2b486","server":"266","farm":1,"title":"Take-off bc","ispublic":1,"isfriend":0,"isfamily":0},{"id":"32271805123","owner":"34421621@N03","secret":"25811d4f77","server":"3875","farm":4,"title":"a window of light","ispublic":1,"isfriend":0,"isfamily":0},{"id":"33087169855","owner":"80340232@N05","secret":"2d65e433d5","server":"613","farm":1,"title":"Carinwood Estate_DSC0286 photoshop NIK edit \u00a9","ispublic":1,"isfriend":0,"isfamily":0},{"id":"32710446500","owner":"55846234@N05","secret":"7d845141e4","server":"404","farm":1,"title":"1, 2, 3... Splassssshhhhh","ispublic":1,"isfriend":0,"isfamily":0},{"id":"32924900352","owner":"45064095@N06","secret":"a07bf96fe2","server":"2517","farm":3,"title":"Path to Van's","ispublic":1,"isfriend":0,"isfamily":0}]},"stat":"ok"}
